[gd_scene load_steps=3 format=2]

[ext_resource path="res://Assets/Audio/SFX/SfxPlayer.tscn" type="PackedScene" id=1]
[ext_resource path="res://Assets/Audio/SFX/SFX_UI_Cancel.ogg" type="AudioStream" id=2]

[node name="CancelSfxPlayer" instance=ExtResource( 1 )]
stream = ExtResource( 2 )
