[gd_resource type="StyleBoxFlat" format=2]

[resource]
content_margin_left = 25.0
content_margin_right = 25.0
content_margin_top = 25.0
content_margin_bottom = 25.0
bg_color = Color( 0.854902, 0.721569, 0.988235, 1 )
corner_radius_top_left = 10
corner_radius_top_right = 10
