[gd_resource type="AtlasTexture" load_steps=2 format=2]

[ext_resource path="res://Goga/garden_icons_06.png" type="Texture" id=1]

[resource]
flags = 4
atlas = ExtResource( 1 )
region = Rect2( 818, 424.842, 356, 449.158 )
