[gd_scene load_steps=6 format=2]

[ext_resource path="res://Assets/trash_can_closed_full_size.png" type="Texture" id=1]
[ext_resource path="res://Assets/trash_can_open_full_size.png" type="Texture" id=2]
[ext_resource path="res://Assets/TrashCan.gd" type="Script" id=3]

[sub_resource type="Animation" id=3]
length = 0.001
tracks/0/type = "value"
tracks/0/path = NodePath(".:texture")
tracks/0/interp = 1
tracks/0/loop_wrap = true
tracks/0/imported = false
tracks/0/enabled = true
tracks/0/keys = {
"times": PoolRealArray( 0 ),
"transitions": PoolRealArray( 1 ),
"update": 0,
"values": [ ExtResource( 1 ) ]
}

[sub_resource type="Animation" id=4]
resource_name = "hover"
length = 0.8
loop = true
tracks/0/type = "value"
tracks/0/path = NodePath(".:texture")
tracks/0/interp = 1
tracks/0/loop_wrap = true
tracks/0/imported = false
tracks/0/enabled = true
tracks/0/keys = {
"times": PoolRealArray( 0, 0.4 ),
"transitions": PoolRealArray( 1, 1 ),
"update": 1,
"values": [ ExtResource( 1 ), ExtResource( 2 ) ]
}

[node name="TrashCan" type="TextureRect"]
modulate = Color( 1, 1, 1, 0.705882 )
anchor_right = 1.0
anchor_bottom = 1.0
mouse_filter = 2
texture = ExtResource( 1 )
stretch_mode = 6
script = ExtResource( 3 )

[node name="AnimationPlayer" type="AnimationPlayer" parent="."]
anims/RESET = SubResource( 3 )
anims/hover = SubResource( 4 )
