[gd_scene load_steps=5 format=2]

[ext_resource path="res://MenuAnimationPlayer.gd" type="Script" id=1]

[sub_resource type="Animation" id=1]
length = 0.001
tracks/0/type = "value"
tracks/0/path = NodePath(".:rect_scale")
tracks/0/interp = 1
tracks/0/loop_wrap = true
tracks/0/imported = false
tracks/0/enabled = true
tracks/0/keys = {
"times": PoolRealArray( 0 ),
"transitions": PoolRealArray( 1 ),
"update": 0,
"values": [ Vector2( 0.5, 0.5 ) ]
}

[sub_resource type="Animation" id=3]
resource_name = "hide"
length = 0.2
step = 0.05
tracks/0/type = "value"
tracks/0/path = NodePath(".:rect_scale")
tracks/0/interp = 2
tracks/0/loop_wrap = true
tracks/0/imported = false
tracks/0/enabled = true
tracks/0/keys = {
"times": PoolRealArray( 0, 0.05, 0.2 ),
"transitions": PoolRealArray( 1, 1, 1 ),
"update": 0,
"values": [ Vector2( 1, 1 ), Vector2( 1.1, 1.1 ), Vector2( 0.5, 0.5 ) ]
}

[sub_resource type="Animation" id=2]
resource_name = "show"
length = 0.2
step = 0.05
tracks/0/type = "value"
tracks/0/path = NodePath(".:rect_scale")
tracks/0/interp = 2
tracks/0/loop_wrap = true
tracks/0/imported = false
tracks/0/enabled = true
tracks/0/keys = {
"times": PoolRealArray( 0, 0.15, 0.2 ),
"transitions": PoolRealArray( 1, 1, 1 ),
"update": 0,
"values": [ Vector2( 0.5, 0.5 ), Vector2( 1.1, 1.1 ), Vector2( 1, 1 ) ]
}

[node name="MenuAnimationPlayer" type="AnimationPlayer"]
anims/RESET = SubResource( 1 )
anims/hide = SubResource( 3 )
anims/show = SubResource( 2 )
script = ExtResource( 1 )
